%YAML 1.1
%TAG !u! tag:unity3d.com,2011:
--- !u!1045 &1
EditorBuildSettings:
  m_ObjectHideFlags: 0
  serializedVersion: 2
  m_Scenes:
  - enabled: 1
    path: Assets/menu.unity
    guid: 4cbb8730a095a194885c75e66b108f49
  - enabled: 1
    path: Assets/scene_game.unity
    guid: d81a51d1f422d204f9e1f55d083bf932
  - enabled: 1
    path: Assets/Win.unity
    guid: 62725935a6cc83748a7b152ae95beff3
  m_configObjects: {}
